{
  "results": [
    {
      "id": 533535,
      "title": "Deadpool & Wolverine",
      "poster_path": "/8cdWjvZQUExUUTzyp4t6EDMubfO.jpg",
      "vote_average": 7.8,
      "release_date": "2024-07-24"
    },
    {
      "id": 912649,
      "title": "Venom: The Last Dance",
      "poster_path": "/aosm8NMQ3UyoBVpSxyimorCQykC.jpg",
      "vote_average": 6.7,
      "release_date": "2024-10-22"
    }
  ],
  "page": 1,
  "total_pages": 500,
  "total_results": 10000
}
